{
  "packageId": "org.communecter.oceco.twa",
  "host": "oce.co.tools",
  "name": "Oceco Lite",
  "launcherName": "Oceco-lite",
  "display": "standalone",
  "themeColor": "#324553",
  "themeColorDark": "#000000",
  "navigationColor": "#000000",
  "navigationColorDark": "#000000",
  "navigationDividerColor": "#000000",
  "navigationDividerColorDark": "#000000",
  "backgroundColor": "#FFFFFF",
  "enableNotifications": true,
  "startUrl": "/",
  "iconUrl": "https://oce.co.tools/oceco_512.png",
  "monochromeIconUrl": "https://oce.co.tools/ic_stat_co_24.png",
  "splashScreenFadeOutDuration": 300,
  "signingKey": {
    "path": "/home/djabatav/.keystore",
    "alias": "Mapphotos"
  },
  "appVersionName": "5",
  "appVersionCode": 5,
  "shortcuts": [
    {
      "name": "Profile",
      "shortName": "Profile",
      "url": "https://oce.co.tools/me/profil",
      "chosenIconUrl": "https://oce.co.tools/shortcuts/home-solid.png"
    },
    {
      "name": "Mes actions",
      "shortName": "Mes actions",
      "url": "https://oce.co.tools/me/actions",
      "chosenIconUrl": "https://oce.co.tools/shortcuts/inbox-solid.png"
    },
    {
      "name": "Mes notes",
      "shortName": "Mes notes",
      "url": "https://oce.co.tools/me/notes",
      "chosenIconUrl": "https://oce.co.tools/shortcuts/sticky-note-solid.png"
    },
    {
      "name": "Notifications",
      "shortName": "Notification",
      "url": "https://oce.co.tools/notifications",
      "chosenIconUrl": "https://oce.co.tools/shortcuts/bell-solid.png"
    }
  ],
  "generatorApp": "bubblewrap-cli",
  "webManifestUrl": "https://oce.co.tools/pwa.json",
  "fallbackType": "customtabs",
  "features": {
    "locationDelegation": {
      "enabled": true
    }
  },
  "alphaDependencies": {
    "enabled": false
  },
  "enableSiteSettingsShortcut": true,
  "isChromeOSOnly": false,
  "isMetaQuest": false,
  "fullScopeUrl": "https://oce.co.tools/",
  "minSdkVersion": 19,
  "orientation": "portrait",
  "fingerprints": [],
  "additionalTrustedOrigins": [],
  "retainedBundles": [],
  "appVersion": "5"
}